{
  "hub": {
    "model": "desktop",
    "browserName": "chrome",
    "goog:chromeOptions": {
      "w3c": false,
      "args": [
        "--disable-gpu",
        "--ignore-certificate-errors",
        "--disable-extensions",
        "--disable-popup-blocking",
        "--use-fake-ui-for-media-stream",
        "--use-fake-device-for-media-stream",
        "--disable-web-security",
        "--no-sandbox"
      ]
    }
  }
}